000723
000731
000744
000748
000808
000814
000843
000848
000900
000905
000958
000963
000972
001003
001008
001050
001061
001065
001081
001096
001112
001142
001158
001175
001190
001217
001235
001250
001266
001283
001298
001313
001328
001343
001358
001375
001395
001410
001425
001440
001455
001470
001485
001500
001516
001533
001548
001563
001578
001593
001604
001624
001641
001656
001671
001686
001701
001716
001732
001749
001764
001779
001794
001809
001824
001841
002044
002059
002074
002090
002107
002122
002152
002167
002182
002198
002215
002230
002245
002260
002275
002290
002307
002327
002342
002357
002372
002387
002402
002417
002432
002448
002465
002480
002495
002510
002525
002540
002556
002573
002588
002603
002618
002633
002648
002664
002681
002696
002711
002726
002741
002756
002773
002793
002808
002823
002838
002853
002868
002883
002898
002914
002931
002946
002961
002976
002991
003006
003022
003031
003054
003069
003084
003099
003114
003130
003147
003162
003177
003192
003207
003222
003239
003259
003274
003290
003305
003320
003335
003350
003365
003380
003397
003412
003427
003442
003457
003472
003488
003505
003520
003535
003550
003565
003580
003596
003613
003628
003643
003658
003673
003688
003705
003725
003740
003755
003770
003786
003801
003816
003831
003846
003863
003878
003893
003908
003923
003938
003954
003971
003986
004001
004016
004031
004046
004062
004079
004094
004109
004124
004139
004154
004172
004191
004206
004221
004236
004251
004266
004281
004296
004312
004329
004344
004359
004374
004389
004404
004420
004437
004452
004467
004482
004497
004512
004528
004545
004560
004575
004590
004605
004620
004638
004657
004672
004687
004702
004717
004732
004747
004762
004778
004795
004810
004825
004840
004855
004870
004886
004903
004918
004933
004948
004963
004978
004994
005011
005026
005041
005056
005071
005086
005104
005123
005138
005153
005168
005183
005198
005213
005228
005244
005261
005276
005289
005306
005317
005336
005352
005369
005384
005399
005414
005429
005444
005460
005477
005492
005507
005522
005537
005552
005570
005589
005604
005619
005634
005649
005664
005679
005694
005710
005727
005742
005757
005772
005787
005802
005818
005835
005850
005865
005880
005895
005910
005926
005943
005958
005973
005988
006003
006018
006036
006055
006070
006085
006100
006115
006130
006145
006160
006176
006193
006208
006223
006238
006253
006268
006284
006301
006316
006331
006346
006361
006376
006392
006409
006424
006439
006454
006469
006484
006502
006521
006536
006551
006566
006581
006596
006611
006626
006642
006659
006674
006689
006704
006719
006734
006750
006767
006782
006797
006812
006827
006842
006858
006875
006890
006905
006920
006935
006950
006968
006987
007002
007017
007032
007047
007062
007077
007092
007108
007125
007140
007155
007170
007185
007200
007216
007233
007248
007263
007278
007293
007308
007324
007341
007356
007371
007386
007401
007416
007434
007453
007468
007483
007498
007513
007528
007543
007558
007574
007591
007606
007621
007636
007651
007666
007682
007699
007714
007729
007744
007759
007774
007790
007807
007822
007837
007852
007867
007882
007900
007919
007934
007949
007964
007979
007994
008009
008024
008040
008057
008072
008087
008102
008117
008132
008148
008165
008180
008195
008210
008225
008240
008256
008273
008288
008303
008318
008333
008348
008366
008385
008400
008415
008430
008445
008460
008475
008490
008506
008523
008538
008553
008568
008583
008598
008614
008631
010063
010152
010167
010182
010197
010212
010230
010249
010264
010279
010294
010309
010324
010339
010354
010370
010387
010402
010417
010432
010447
010462
010478
010495
010510
010525
010540
010555
010570
010586
010603
010618
010633
010648
010663
010678
010696
010715
010730
010745
010760
010775
010790
010805
010820
010836
010853
010868
010883
010898
010913
010928
010944
010961
010976
010991
011006
011021
011036
011052
011069
011084
011099
011114
011129
011144
011162
011181
011196
011211
011226
011241
011256
011271
011286
011302
011319
011334
011349
011364
011379
011394
011410
011427
011442
011457
011472
011487
011502
011518
011535
011550
011565
011580
011595
011610
011633
011647
011662
011677
011692
011707
011722
011737
011752
011768
011785
011800
011815
011830
011845
011860
011876
011893
011908
011923
011938
011953
011968
011984
012001
012016
012031
012046
012061
012076
012094
012113
012128
012143
012158
012173
012188
012203
012218
012234
012248
012266
012281
012296
012311
012326
012342
012359
012374
012389
012404
012419
012434
012450
012467
012482
012497
012512
012527
012542
012560
012579
012594
012609
012624
012639
012654
012669
012684
012700
012717
012732
012747
012762
012777
012792
012808
012825
012840
012855
012870
012885
012900
012916
012933
012948
012963
012978
012993
013008
013026
013045
013060
013075
013090
013105
013120
013135
013150
013166
013183
013198
013213
013228
013241
013258
013274
013291
013306
013321
013336
013351
013366
013382
013399
013414
013429
013444
013459
013474
013492
013511
013526
013541
013556
013571
013586
013601
013616
013632
013649
013664
013679
013694
013709
013724
013740
013757
013772
013787
013802
013817
013832
013848
013865
013880
013895
013910
013925
013940
013958
013977
013992
014007
014022
014037
014052
014067
014082
014098
014115
014130
014145
014160
014175
014190
014206
014223
014238
014253
014269
014283
014298
014314
014331
014346
014361
014376
014391
014406
014424
014443
014458
014473
014488
014503
014518
014533
014548
014564
014581
014596
014611
014626
014641
014656
014667
014689
014704
014719
014734
014749
014764
014780
014797
014812
014827
014842
014857
014872
014890
014909
014924
014939
014954
014969
014984
014999
015014
015030
015047
015062
015077
015092
015107
015122
015138
015155
015170
015185
015200
015215
015230
015246
015263
015278
015293
015308
015323
015338
015356
015375
015390
015405
015420
015435
015450
015465
015480
015496
015513
015528
015543
015558
015573
015588
015604
015621
015636
015651
015666
015681
015696
015712
015729
015744
015759
015774
015789
015804
015822
015841
015856
015871
015886
015901
015916
015931
015946
015962
015979
015994
016009
016024
016039
016054
016070
016087
016102
016117
016132
016147
016162
016178
016195
016210
016225
016240
016255
016270
016288
016307
016322
016337
016352
016367
016382
016397
016412
016428
016445
016460
016475
016490
016505
016520
016536
016553
016568
016583
016598
016613
016628
016644
016661
016676
016691
016706
016721
016736
016754
016773
016788
016803
016818
016833
016848
016863
016878
016894
016911
016926
016941
016956
016971
016986
017002
017019
017034
017049
017064
017079
017094
017110
017127
017142
017157
017172
017187
017202
017220
017239
017254
017269
017284
017299
017314
017329
017344
017360
017377
017392
017407
017422
017437
017452
017468
017485
017500
017515
017530
017545
017560
017576
017593
017608
017623
017638
017653
017668
017686
017705
017720
017735
017750
017765
017780
017795
017810
017826
017843
017858
017873
017888
017903
017918
017934
017951
017966
017981
017996
018011
018026
018042
018059
018074
018089
018104
018119
018134
018152
018171
018186
018201
018216
018231
018246
018261
018276
018292
018309
018324
018339
018354
018369
018384
018400
018417
018432
018447
018462
018477
018492
018508
018525
018540
018555
018570
018585
018600
018618
018637
018652
018667
018682
018697
018712
018727
018742
018758
018775
018790
018805
018820
018835
018850
018866
018883
018898
018913
018928
018943
018958
018974
018991
019006
019021
019036
019051
019066
019084
019103
019118
019133
019148
019163
019178
019193
019208
019224
019241
019256
019271
019286
019301
019316
019325
019349
019364
019379
019394
019409
019424
019440
019457
019472
019487
019502
019517
019532
019550
019569
019584
019599
019614
019629
019644
019659
019674
019690
019707
019722
019737
019752
019767
019782
019798
019815
019830
019845
019860
019875
019890
019906
019923
019938
019953
019968
019983
019998
020016
020035
020050
020065
020080
020095
020110
020125
020140
020156
020173
020188
020203
020218
020233
020248
020264
020281
020296
020311
020326
020341
020356
020372
020389
020404
020419
020434
020449
020464
020482
020501
020516
020531
020546
020561
020576
020591
020606
020622
020639
020654
020669
020684
020699
020714
020730
020747
020762
020777
020792
020807
020822
020838
020855
020870
020885
020900
020915
020930
020948
020967
020982
020997
021012
021027
021042
021057
021072
021088
021105
021120
021135
021150
021165
021180
021196
021213
021228
021243
021258
021273
021288
021304
021321
021336
021351
021366
021381
021396
021414
021433
021448
021463
021478
021493
021508
021523
021538
021554
021571
021586
021601
021616
021631
021646
021662
021679
021694
021709
021724
021739
021754
021770
021787
021802
021817
021832
021847
021862
021880
021899
021914
021929
021944
021959
021974
021989
022004
022020
022037
022052
022067
022082
022097
022112
022128
022145
022160
022175
022190
022205
022220
022236
022253
022268
022283
022298
022313
022328
022346
022425
022440
022455
022470
022486
022503
022518
022533
022548
022563
022578
022594
022611
022626
022641
022656
022671
022686
022702
022719
022734
022749
022764
022779
022794
022812
022831
022846
022861
022876
022891
022906
022921
022936
022952
022969
022984
022999
023014
023029
023044
023060
023077
023092
023107
023122
023137
023152
023168
023185
023200
023215
023230
023245
023260
023278
023297
023312
023327
023342
023357
023372
023387
023402
023418
023435
023450
023465
023480
023495
023510
023526
023543
023558
023573
023588
023603
023618
023634
023651
023666
023681
023696
023711
023726
023744
023763
023778
023793
023808
023823
023838
023853
023868
023884
023901
023916
023931
023946
023961
023976
023992
024009
024024
024039
024054
024069
024084
024100
024117
024132
024147
024162
024177
024192
024210
024229
024244
024259
024274
024289
024304
024319
024334
024350
024367
024382
024397
024412
024427
024442
024458
024475
024490
024505
024520
024535
024550
024566
024583
024598
024613
024628
024643
024658
024676
024695
024710
024725
024740
024755
024770
024785
024800
024816
024833
024846
024863
024876
024893
024908
024924
024941
024956
024971
024986
025001
025016
025032
025049
025064
025079
025094
025109
025124
025142
025161
025176
025191
025206
025221
025236
025251
025266
025282
025299
025314
025329
025344
025359
025371
025390
025407
025422
025437
025452
025467
025482
025498
025515
025530
025545
025560
025575
025590
025608
025627
025642
025657
025672
025687
025702
025717
025732
025748
025765
025780
025795
025810
025825
025840
025856
025873
025890
025903
025918
025933
025948
025964
025981
025996
026011
026026
026041
026056
026074
026093
026108
026123
026138
026153
026168
026183
026198
026214
026231
026246
026261
026276
026291
026306
026322
026339
026354
026369
026384
026399
026414
026430
026447
026462
026477
026492
026507
026522
026540
026559
026574
026589
026604
026619
026634
026649
026664
026680
026697
026712
026727
026742
026757
026772
026788
026805
026820
026835
026850
026865
026880
026896
026913
026928
026943
026958
026973
026988
027006
027025
027040
027055
027070
027085
027100
027115
027130
027146
027163
027178
027193
027208
027223
027238
027254
027271
027286
027301
027316
027331
027346
027362
027379
027394
027409
027424
027439
027454
027472
027491
027506
027521
027536
027551
027566
027581
027596
027612
027628
027644
027659
027674
027689
027704
027720
027737
027752
027767
027782
027797
027812
027828
027845
027860
027875
027890
027905
027920
027938
027957
027972
027987
028002
028017
028032
028047
028062
028078
028095
028110
028125
028140
028155
028170
028186
028203
028218
028233
028248
028263
028278
028294
028311
028326
028341
028356
028371
028386
028404
028423
028438
028453
028468
028483
028498
028513
028528
028544
028561
028576
028591
028606
028621
028636
028652
028669
028684
028699
028714
028729
028744
028760
028777
028792
028807
028822
028837
028852
028870
028889
028904
028919
028934
028949
028964
028979
028994
029010
029027
029042
029057
029072
029087
029102
029118
029135
029150
029165
029180
029195
029210
029226
029243
029258
029273
029288
029303
029318
029336
029355
029370
029385
029400
029415
029430
029445
029460
029475
029493
029508
029523
029538
029553
029568
029584
029601
029616
029631
029646
029661
029676
029692
029709
029724
029739
029754
029769
029784
029802
029821
029836
029851
029866
029881
029896
029911
029926
029942
029959
029974
029989
030004
030019
030034
030050
030067
030083
030097
030112
030127
030142
030158
030175
030190
030205
030220
030235
030250
030268
030287
030302
030317
030332
030347
030362
030377
030392
030408
030425
030440
030455
030470
030485
030500
030516
030533
030548
030563
030578
030593
030608
030624
030641
030656
030671
030686
030701
030716
030734
030753
030768
030783
030798
030813
030828
030843
030858
030874
030891
030906
030921
030936
030951
030966
030982
030999
031014
031029
031044
031059
031074
031090
031107
031122
031137
031152
031167
031182
031200
031219
031234
031249
031264
031279
031294
031309
031324
031340
031357
031372
031387
031402
031417
031432
031448
031465
031480
031495
031510
031525
031540
031556
031573
031588
031603
031618
031633
031648
031666
031685
031700
031715
031730
031745
031760
031775
031790
031806
031823
031838
031853
031868
031883
031898
031914
031931
031946
031961
031976
031991
032006
032022
032039
032054
032069
032084
032099
032114
032132
032151
032166
032181
032196
032211
032226
032241
032256
032272
032289
032304
032319
032334
032349
032364
032380
032397
032412
032427
032442
032457
032472
032488
032505
032520
032535
032550
032565
032580
032598
032617
032632
032647
032662
032677
032692
032707
032722
032738
032755
032770
032785
032800
032815
032830
032846
032863
032878
032893
032908
032923
032938
032954
032971
032986
033001
033016
033031
033046
033064
033083
033098
033113
033128
033143
033158
033173
033188
033204
033221
033236
033251
033266
033281
033296
033312
033329
033344
033359
033374
033389
033404
033420
033437
033452
033467
033482
033497
033512
033530
033549
033564
033579
033594
033609
033624
033639
033654
033670
033687
033702
033717
033732
033745
033762
033778
033795
033810
033825
033840
033855
033870
033886
033903
033918
033933
033948
033963
033978
033996
034015
034030
034045
034060
034075
034090
034105
034120
034136
034153
034168
034183
034198
034213
034228
034244
034261
034276
034291
034306
034321
034336
034352
034369
034384
034399
034414
034429
034444
034462
034481
034496
034511
034526
034541
034556
034571
034586
034602
034619
034634
034649
034664
034679
034694
034710
034727
034742
034757
034772
034787
034802
034818
034835
034850
034865
034880
034895
034910
034928
034947
034962
034977
034992
035007
035022
035037
035052
035068
035085
035100
035115
035130
035145
035160
035176
035193
035208
035223
035238
035253
035269
035284
035301
035316
035331
035346
035361
035376
035394
035413
035428
035443
035458
035473
035488
035503
035518
035534
035551
035566
035578
035596
035611
035626
035642
035659
035675
035689
035704
035719
035734
035750
035767
035782
035797
035812
035827
035842
035860
035879
035894
035909
035924
035939
035954
035969
035984
036000
036017
036032
036047
036062
036077
036092
036108
036125
036140
036155
036170
036185
036200
036216
036233
036248
036263
036278
036293
036308
036326
036345
036360
036375
036390
036405
036420
036435
036450
036466
036483
036498
036513
036528
036543
036558
036574
036591
036606
036621
036636
036651
036666
036682
036699
036714
036729
036744
036759
036774
036792
036811
036826
036841
036856
036871
036886
036901
036916
036932
036949
036964
036979
036994
037009
037024
037040
037057
037072
037087
037102
037117
037132
037148
037165
037180
037195
037210
037225
037240
037258
037277
037292
037307
037322
037337
037352
037367
037382
037398
037415
037430
037445
037460
037475
037490
037506
037523
037538
037553
037568
037583
037598
037614
037631
037646
037661
037676
037691
037706
037724
037743
037758
037773
037788
037803
037818
037833
037848
037864
037881
037896
037911
037924
037941
037956
037972
037989
038004
038019
038035
038049
038064
038080
038097
038112
038127
038142
038157
038172
038190
038209
038224
038239
038254
038269
038284
038299
038314
038330
038347
038362
038377
038392
038407
038422
038438
038455
038470
038485
038500
038515
038530
038546
038563
038578
038593
038608
038623
038636
038656
038675
038690
038705
038720
038735
038750
038765
038780
038796
038813
038828
038842
038858
038873
038888
038904
038921
038936
038951
038966
038981
038996
039012
039029
039044
039059
039074
039089
039104
039122
039141
039156
039171
039186
039201
039216
039231
039246
039262
039279
039294
039309
039324
039337
039354
039370
039387
039402
039417
039432
039447
039462
039478
039495
039510
039525
039540
039555
039570
039588
039607
039622
039637
039652
039667
039682
039697
039712
039728
039745
039760
039775
039790
039805
039820
039836
039853
039868
039883
039898
039913
039928
039944
039961
039976
039991
040006
040021
040036
040054
040073
040088
040103
040118
040133
040148
040163
040178
040194
040209
040226
040241
040256
040271
040286
040302
040319
040334
040349
040364
040379
040394
040410
040427
040442
040457
040472
040487
040502
040520
040539
040554
040569
040584
040599
040614
040629
040644
040660
040677
040692
040707
040722
040737
040752
040768
040785
040800
040815
040830
040845
040860
040876
040893
040908
040923
040938
040953
040968
040986
041005
041020
041035
041050
041065
041080
041095
041110
041126
041143
041158
041173
041188
041203
041218
041234
041251
041266
041281
041296
041311
041326
041342
041359
041374
041389
041404
041419
041434
041452
041471
041486
041501
041516
041531
041546
041561
041576
041592
041609
041624
041639
041654
041669
041681
041700
041717
041732
041747
041762
041777
041792
041808
041825
041840
041855
041870
041883
041900
041918
041937
041952
041967
041982
041997
042012
042027
042042
042058
042075
042090
042105
042120
042135
042150
042166
042183
042198
042213
042228
042243
042258
042274
042291
042306
042321
042336
042351
042366
042384
042403
042418
042433
042448
042463
042478
042493
042508
042524
042541
042556
042571
042586
042601
042611
042632
042649
042664
042679
042694
042709
042724
042740
042757
042772
042787
042802
042817
042832
042850
042869
042884
042899
042914
042929
042944
042959
042974
042990
043007
043022
043037
043052
043067
043082
043098
043115
043130
043145
043160
043175
043190
043206
043223
043238
043253
043272
043283
043298
043316
043335
043350
043365
043380
043395
043410
043425
043440
043456
043473
043488
043503
043518
043533
043548
043564
043581
043596
043611
043626
043641
043656
043672
043689
043704
043719
043734
043749
043764
043782
043801
043816
043831
043846
043861
043876
043891
043906
043922
043939
043954
043969
043984
043999
044014
044030
044047
044062
044077
044092
044107
044122
044138
044155
044170
044185
044200
044215
044230
044248
044267
044282
044297
044312
044327
044342
044357
044372
044388
044405
044420
044435
044450
044465
044480
044496
044513
044528
044543
044558
044573
044588
044604
044621
044636
044651
044666
044681
044696
044714
044733
044748
044763
044778
044793
044808
044823
044838
044854
044871
044886
044901
044916
044931
044946
044962
044979
044994
045009
045024
045039
045054
045070
045087
045102
045117
045132
045147
045162
045180
045199
045214
045229
045244
045259
045274
045289
045304
045320
045337
045352
045367
045382
045397
045412
045428
045445
045460
045475
045490
045505
045520
045536
045553
045568
045583
045598
045613
045628
045646
045665
045680
045695
045710
045725
045740
045755
045770
045786
045803
045818
045833
045848
045863
045878
045894
045911
045926
045941
045956
045971
045986
046002
046019
046034
046049
046064
046079
046094
046112
046131
046146
046161
046176
046191
046206
046221
046236
046252
046269
046284
046299
046314
046329
046344
046360
046378
046392
046407
046422
046437
046452
046468
046485
046500
046515
046530
046545
046560
046578
046597
046612
046627
046642
046657
046672
046687
046702
046718
046735
046750
046765
046780
046791
046810
046826
046843
046858
046873
046888
046903
046918
046934
046951
046966
046981
046996
047011
047026
047044
047063
047078
047093
047108
047123
047138
047153
047168
047184
047201
047216
047231
047246
047261
047276
047292
047309
047324
047339
047354
047369
047384
047400
047417
047432
047447
047462
047477
047492
047510
047529
047544
047559
047574
047589
047604
047619
047634
047650
047667
047682
047697
047712
047727
047742
047758
047775
047790
047805
047820
047835
047850
047866
047883
047898
047913
047928
047943
047958
047976
047995
048010
048025
048040
048055
048070
048085
048100
048116
048133
048148
048163
048178
048193
048208
048224
048241
048256
048271
048286
048301
048316
048332
048349
048364
048379
048394
048409
048424
048442
048461
048476
048491
048506
048521
048536
048551
048566
048582
048599
048613
048629
048644
048659
048674
048690
048707
048722
048737
048752
048767
048782
048798
048815
048830
048845
048860
048875
048890
048908
048927
048942
048957
048972
048987
049002
049017
049032
049048
049065
049080
049093
049110
049123
049140
049156
049173
049188
049203
049218
049233
049248
049264
049281
049296
049311
049326
049341
049356
049374
049393
049408
049423
049438
049453
049468
049483
049498
049514
049531
049546
049561
049576
049591
049606
049639
049654
049669
049684
049699
049714
049730
049747
049757
049777
049792
049807
049822
049840
049859
049874
049889
049904
049919
049939
049949
049964
049980
049997
050012
050027
050042
050057
050072
050088
050105
050113
050135
050150
050167
050180
050196
050213
050228
050243
050258
050273
050288
050306
050325
050340
050355
050370
050385
050400
050415
050430
050446
050463
050478
050493
050508
050523
050538
050550
050565
050586
050601
050616
050631
050646
050662
050679
050694
050709
050724
050739
050754
050772
050791
050806
050821
050836
050851
050866
050881
050896
050912
050929
050944
050959
050974
050989
051004
051014
051037
051052
051067
051082
051097
051112
051128
051145
051160
051175
051190
051205
051220
051238
051257
051272
051287
051306
051317
051332
051347
051362
051378
051395
051410
051425
051440
051455
051467
051486
051503
051518
051533
051548
051563
051578
051594
051611
051626
051641
051656
051671
051686
051704
051723
051738
051753
051768
051783
051798
051813
051828
051844
051861
051876
051891
051906
051921
051936
051952
051969
051984
051987
051999
052014
052029
052044
052060
052077
052092
052107
052122
052137
052152
052170
052189
052204
052219
052234
052249
052264
052279
052294
052310
052327
052342
052357
052372
052387
052402
052418
052435
052450
052465
052480
052495
052510
052526
052543
052558
052573
052588
052603
052618
052636
052655
052670
052685
052700
052715
052730
052745
052760
052776
052793
052808
052823
052838
052853
052868
052884
052901
052916
052931
052937
052961
052976
052992
053009
053024
053039
053054
053069
053084
053102
053121
053136
053151
053166
053181
053196
053211
053226
053242
053259
053274
053289
053304
053316
053334
053350
053367
053382
053397
053412
053427
053442
053463
053475
053490
053505
053520
053535
053550
053568
053587
053602
053617
053632
053647
053664
053677
053692
053708
053725
053740
053755
053770
053782
053800
053816
053833
053839
053863
053878
053893
053908
053924
053941
053956
053971
053986
054001
054016
054034
054053
054068
054083
054098
054113
054128
054143
054158
054174
054187
054206
054218
054236
054251
054266
054282
054299
054314
054329
054344
054359
054374
054390
054407
054422
054437
054452
054467
054482
054500
054519
054534
054549
054564
054579
054594
054609
054624
054640
054657
054672
054687
054702
054717
054732
054741
054765
054780
054795
054810
054825
054840
054856
054873
054888
054903
054918
054933
054948
054966
054985
055000
055015
055030
055045
055060
055075
055090
055106
055123
055138
055153
055168
055183
055198
055214
055231
055246
055261
055276
055291
055306
055322
055339
055354
055369
055384
055399
055414
055432
055451
055466
055481
055496
055511
055526
055541
055556
055572
055589
055604
055619
055634
055649
055664
055680
055697
055712
055727
055742
055757
055772
055788
055805
055820
055835
055850
055865
055880
055898
055917
055932
055947
055962
055977
055992
056007
056022
056038
056055
056070
056085
056100
056115
056130
056146
056163
056171
056185
056208
056223
056238
056254
056271
056286
056301
056316
056331
056346
056364
056383
056398
056413
056428
056443
056458
056473
056488
056504
056521
056536
056551
056566
056581
056596
056612
056629
056644
056659
056674
056689
056704
056720
056737
056752
056767
056782
056797
056812
056830
056849
056864
056879
056894
056909
056924
056939
056954
056970
056987
057002
057017
057032
057047
057062
057078
057095
057110
057125
057140
057155
057170
057186
057203
057218
057233
057248
057263
057278
057299
057315
057330
057345
057360
057375
057390
057405
057420
057436
057453
057468
057483
057498
057513
057528
057544
057558
057576
057591
057606
057621
057636
057652
057669
057684
057699
057714
057729
057744
057762
057781
057796
057811
057826
057841
057856
057871
057886
057902
057919
057934
057949
057964
057979
057994
058010
058027
058042
058057
058072
058087
058102
058118
058135
058150
058165
058180
058195
058210
058228
058247
058262
058277
058292
058307
058322
058337
058352
058368
058385
058400
058415
058430
058445
058460
058476
058493
058508
058523
058538
058553
058568
058584
058601
058616
058631
058646
058661
058676
058694
058713
058728
058743
058758
058773
058788
058803
058818
058834
058851
058866
058881
058896
058911
058926
058942
058959
058974
058989
059004
059019
059034
059050
059067
059082
059097
059112
059127
059142
059160
059179
059194
059209
059224
059239
059254
059269
059284
059300
059317
059332
059347
059362
059377
059392
059408
059425
059440
059455
059470
059485
059500
059516
059533
059548
059563
059578
059593
059608
059626
059645
059660
059675
059690
059705
059720
059735
059750
059766
059783
059798
059813
059828
059843
059858
059874
059891
059906
059921
059936
059951
059966
059982
059999
060014
060029
060044
060059
060074
060092
060111
060126
060141
060156
060171
060186
060201
060216
060232
060249
060264
060279
060294
060309
060324
060340
060357
060372
060387
060402
060417
060432
060448
060465
060480
060495
060510
060525
060540
060558
060577
060592
060607
060622
060637
060652
060667
060682
060698
060715
060730
060745
060760
060775
060790
060806
060823
060838
060853
060868
060883
060898
060914
060931
060946
060961
060976
060991
061006
061024
061043
061058
061073
061088
061103
061118
061133
061148
061164
061181
061196
061211
061226
061241
061256
061272
061289
061304
061319
061334
061349
061364
061380
061397
061412
061427
061442
061457
061472
061490
061509
061524
061539
061554
061569
061584
061599
061614
061630
061647
061662
061677
061692
061707
061722
061738
061755
061770
061785
061800
061815
061830
061846
061863
061878
062080
062096
062113
062128
062143
062158
062169
062188
062204
062221
062236
062251
062266
062281
062296
062312
062329
062344
062359
062374
062389
062404
062422
062441
062456
062471
062486
062501
062516
062531
062546
062562
062579
062594
062609
062624
062639
062654
062670
062687
062702
062717
062732
062747
062762
062778
062795
062810
062825
062840
062855
062870
062888
062907
062922
062937
062952
062967
062982
062997
063012
063028
063045
063060
063075
063090
063102
063120
063136
063373
063388
063403
063418
063433
063448
063463
063478
063494
063511
063526
063541
063556
063571
063586
063602
063619
063634
063649
063664
063679
063694
063710
063727
063742
063757
063772
063787
063802
063820
063839
063854
063869
063884
063899
063914
063929
063944
063960
063977
063992
064007
064021
064037
064052
064068
064085
064100
064115
064130
064145
064160
064176
064193
064208
064223
064238
064253
064268
064286
064305
064320
064335
064350
064365
064380
064395
064410
064426
064443
064458
064473
064488
064503
064516
064534
064551
064566
064581
064596
064611
064626
064642
064659
064674
064689
064704
064719
064734
064752
064771
064786
064801
064816
064831
064846
064861
064876
064892
064909
064924
064939
064954
064969
064984
065000
065017
065032
065047
065062
065077
065092
065108
065125
065140
065155
065170
065185
065200
065218
065237
065252
065267
065282
065297
065312
065327
065342
065358
065375
065390
065405
065420
065435
065450
065466
065483
065498
065513
065528
065543
065558
065574
065591
065606
065621
065636
065651
065666
065684
065703
065718
065733
065748
065763
065778
065793
065808
065824
065841
065856
065871
065886
065901
065916
065932
065949
065964
065979
065994
066009
066024
066040
066057
066072
066087
066102
066117
066132
066150
066169
066184
066199
066214
066229
066244
066259
066274
066290
066307
066322
066337
066352
066367
066382
066398
066415
066430
066445
066460
066475
066490
066506
066523
066538
066553
066568
066583
066598
066616
066635
066650
066665
066680
066695
066710
066725
066740
066756
066773
066788
066803
066818
066833
066848
066864
066881
066896
066911
066926
066941
066956
066972
066989
067004
067019
067034
067049
067064
067082
067101
067116
067131
067146
067161
067176
067191
067206
067222
067239
067254
067269
067282
067299
067314
067392
067407
067422
067438
067455
067470
067485
067500
067515
067526
067548
067567
067582
067597
067612
067627
067642
067657
067672
067688
067705
067720
067735
067750
067765
067780
067796
067813
067828
067843
067858
067873
067888
067904
067921
067936
067951
067966
067981
067996
068014
068033
068048
068063
068078
068093
068108
068123
068138
068154
068171
068186
068201
068216
068231
068246
068262
068279
068294
068309
068324
068339
068354
068370
068387
068402
068417
068432
068447
068462
068480
068499
068514
068529
068544
068559
068574
068589
068604
068620
068637
068652
068667
068682
068697
068712
068728
068745
068760
068775
068790
068805
068820
068836
068853
068868
068883
068898
068913
068928
068946
068965
068980
068995
069010
069025
069040
069055
069070
069086
069103
069118
069133
069148
069163
069178
069194
069211
069226
069241
069256
069271
069286
069302
069319
069334
069349
069364
069379
069394
069412
069431
069446
069461
069476
069491
069506
069521
069536
069552
069569
069584
069599
069612
069629
069644
069660
069677
069692
069707
069722
069737
069752
069768
069785
069800
069815
069830
069845
069860
069878
069897
069912
069927
069942
069957
069972
069987
070002
070018
070035
070050
070065
070080
070095
070110
070126
070143
070158
070173
070188
070203
070218
070234
070251
070266
070281
070296
070311
070326
070344
070363
070378
070393
070408
070423
070438
070453
070468
070484
070501
070516
070531
070546
070561
070576
070592
070609
070624
070639
070654
070669
070684
070700
070717
070732
070747
070762
070777
070792
070810
070829
070844
070859
070874
070889
070904
070919
070934
070950
070967
070982
070997
071012
071027
071042
071058
071075
071090
071105
071120
071135
071150
071166
071183
071198
071213
071228
071243
071258
071276
071295
071314
071325
071340
071355
071370
071385
071400
071416
071433
071448
071463
071478
071493
071508
071524
071541
071556
071571
071586
071601
071616
071632
071649
071664
071679
071694
071709
071724
071742
071761
071776
071791
071806
071821
071836
071851
071866
071882
071899
071914
071929
071944
071959
071974
071990
072007
072022
072037
072052
072067
072082
072098
072115
072130
072145
072160
072175
072190
072208
072227
072242
072257
072272
072287
072302
072317
072332
072348
072365
072380
072395
072410
072425
072440
072456
072473
072488
072503
072518
072533
072548
072564
072581
072596
072611
072626
072641
072656
072674
072693
072708
072723
072738
072753
072768
072783
072798
072814
072831
072846
072861
072873
072891
072906
072922
072939
072954
072969
072984
072999
073014
073030
073047
073062
073077
073092
073107
073122
073140
073159
073174
073189
073204
073219
073234
073249
073264
073280
073297
073312
073327
073342
073357
073372
073388
073405
073420
073435
073450
073465
073480
073496
073513
073528
073543
073558
073573
073588
073606
073625
073640
073655
073670
073685
073700
073715
073730
073746
073763
073778
073793
073805
073823
073838
073854
073871
073886
073901
073916
073931
073946
073962
073979
073994
074009
074024
074039
074054
074072
074091
074106
074121
074136
074151
074166
074181
074196
074212
074229
074244
074259
074274
074289
074304
074320
074337
074352
074367
074382
074397
074412
074428
074445
074460
074475
074490
074505
074520
074538
074557
074572
074587
074602
074617
074632
074647
074662
074678
074695
074707
074725
074740
074755
074770
074786
074803
074818
074833
074848
074863
074878
074894
074911
074926
074941
074956
074971
074986
075004
075023
075038
075053
075068
075083
075098
075113
075128
075144
075161
075176
075191
075206
075221
075236
075252
075269
075284
075299
075314
075329
075344
075360
075377
075392
075407
075422
075437
075452
075470
075489
075504
075519
075534
075549
075564
075579
075594
075610
075627
075642
075657
075672
075687
075702
075718
075735
075750
075765
075780
075795
075810
075826
075843
075858
075873
075888
075903
075918
075936
075955
075970
075985
076000
076015
076030
076045
076060
076076
076093
076108
076123
076138
076150
076168
076184
076201
076216
076231
076246
076261
076276
076292
076309
076324
076339
076354
076369
076384
076402
076421
076436
076451
076466
076481
076496
076511
076526
076542
076559
076574
076589
076604
076619
076634
076644
076667
076682
076697
076712
076727
076742
076758
076775
076790
076805
076820
076835
076850
076868
076887
076902
076917
076932
076947
076962
076977
076992
077008
077025
077040
077055
077070
077085
077100
077116
077133
077148
077163
077178
077193
077208
077224
077241
077256
077271
077286
077301
077316
077334
077353
077368
077383
077398
077413
077428
077443
077458
077474
077491
077506
077521
077536
077551
077566
077582
077599
077614
077629
077644
077659
077674
077690
077707
077722
077737
077752
077767
077782
077800
077819
077834
077849
077864
077879
077894
077909
077924
077940
077957
077969
077987
078002
078017
078032
078048
078065
078080
078095
078110
078125
078140
078156
078173
078188
078203
078218
078233
078248
078266
078285
078300
078315
078330
078345
078360
078375
078390
078406
078423
078438
078453
078468
078480
078498
078514
078531
078546
078561
078576
078591
078606
078622
078639
078654
078669
078684
078699
078714
078732
078751
078766
078781
078796
078811
078826
078841
078856
078872
078889
078904
078919
078934
078949
078964
078980
078997
079012
079027
079042
079057
079072
079088
079105
079120
079135
079150
079165
079180
079198
079217
079232
079247
079262
079277
079292
079307
079322
079338
079355
079370
079385
079400
079415
079430
079446
079463
079478
079493
079508
079523
079538
079554
079571
079586
079601
079616
079631
079646
079664
079683
079698
079713
079728
079743
079758
079773
079788
079804
079818
079836
079851
079866
079881
079896
079912
079929
079944
079959
079974
079989
080004
080020
080037
080052
080067
080082
080097
080112
080130
080149
080164
080179
080194
080209
080224
080239
080254
080270
080287
080302
080317
080332
080347
080362
080378
080395
080410
080425
080440
080455
080470
080486
080503
080518
080533
080548
080563
080578
080596
080615
080630
080645
080660
080675
080690
080705
080720
080736
080753
080768
080783
080798
080813
080828
080844
080861
080876
080891
080906
080921
080936
080952
080969
080984
080999
081014
081029
081044
081062
081081
081099
081114
081129
081144
081159
081174
081189
081204
081219
081234
081249
081264
081279
081294
081309
081324
081335
081354
081369
081384
081399
081414
081429
081444
081459
081474
081489
081504
081534
081549
081564
081579
081594
081609
081624
081639
081654
081669
081684
081699
081714
081729
081744
081759
081774
081789
081804
081819
081834
081849
081864
081879
081894
081909
081924
081939
081954
081969
081984
081999
082014
082029
082044
082059
082074
082089
082104
082119
082134
082149
082164
082179
082194
082209
082224
082239
082254
082269
082282
082299
082314
082329
082344
082359
082374
082389
082404
082419
082434
082449
082464
082479
082494
082509
082524
082539
082554
082569
082584
082599
082614
082629
082644
082659
082674
082689
082704
082719
082734
082749
082764
082779
082794
082809
082824
082839
082854
082869
082884
082899
082914
082929
082944
082959
082974
082989
083004
083019
083034
083049
083064
083079
083094
083109
083124
083139
083154
083169
083184
083199
083214
083229
083244
083259
083272
083289
083304
083319
083334
083349
083364
083379
083394
083409
083424
083439
083454
083469
083484
083499
083514
083529
083544
083559
083574
083589
083604
083619
083634
083649
083664
083679
083694
083709
083724
083739
083754
083769
083784
083799
083814
083829
083844
083859
083874
083889
083904
083919
083934
083949
083964
083979
083994
084009
084024
084039
084054
084069
084084
084099
084114
084129
084144
084159
084174
084189
084204
084219
084234
084249
084264
084279
084294
084309
084324
084339
084354
084369
084384
084399
084414
084429
084444
084459
084474
084489
084504
084519
084534
084549
084564
084579
084594
084609
084624
084639
084654
084669
084684
084699
084714
084729
084744
084759
084774
084789
084804
084814
084834
084849
084864
084879
084894
084909
084924
084939
084954
084969
084984
084999
085014
085029
085044
085059
085074
085089
085104
085119
085134
085149
085164
085179
085194
085209
085224
085239
085254
085269
085284
085299
085309
085329
085344
085359
085374
085389
085404
085419
085434
085449
085464
085479
085494
085509
085524
085539
085554
085569
085584
085599
085614
085629
085644
085659
085674
085689
085704
085719
085734
085749
085764
085779
085794
085809
085819
085839
085854
085869
085884
085899
085914
085929
085944
085959
085974
085989
086004
086019
086034
086049
086064
086079
086094
086109
086124
086139
086154
086169
086184
086199
086214
086229
086244
086259
086274
086289
086304
086319
086334
086349
086364
086379
086394
086409
086424
086439
086454
086469
086484
086499
086514
086529
086544
086559
086574
086589
086604
086619
086634
086649
086664
086679
086694
086709
086724
086739
086754
086769
086784
086799
086814
086829
086844
086859
086874
086889
086904
086919
086934
086949
086964
086979
086994
087009
087024
087039
087054
087069
087084
087099
087114
087129
087144
087159
087174
087189
087204
087219
087234
087249
087264
087279
087294
087309
087324
087339
087354
087369
087384
087399
087414
087429
087444
087459
087474
087489
087504
087519
087534
087549
087564
087579
087594
087609
087624
087639
087654
087669
087684
087699
087714
087729
087744
087756
087774
087789
087804
087819
087834
087849
087864
087879
087894
087909
087924
087939
087954
087969
087984
087999
088014
088029
088044
088059
088074
088089
088104
088119
088134
088149
088164
088179
088194
088209
088224
088239
088254
088269
088284
088299
088314
088329
088344
088359
088374
088389
088404
088419
088434
088449
088464
088479
088494
088509
088524
088539
088554
088569
088584
088599
088614
088629
088644
088659
088674
088689
088704
088719
088734
088749
088764
088779
088794
088809
088824
088839
088854
088869
088884
088899
088914
088929
088944
088959
088974
088989
089004
089019
089034
089049
089064
089079
089094
089109
089124
089139
089154
089169
089184
089199
089214
089229
089244
089259
089274
089285
089304
089319
089334
089349
089364
089379
089394
089409
089424
089439
089454
089469
089484
089499
089514
089529
089544
089559
089574
089589
089604
089619
089634
089649
089664
089679
089694
089709
089724
089739
089754
089769
089784
089799
089814
089829
089844
089859
089874
089889
089904
089919
089934
089949
089964
089979
089994
090009
090024
090039
090054
090069
090084
090099
090114
090129
090144
090159
090174
090189
090204
090219
090234
090249
090264
090279
090294
090309
090320
090339
090354
090369
090384
090399
090414
090429
090444
090459
090474
090489
090504
090519
090534
090549
090564
090579
090594
090609
090624
090639
090654
090669
090684
090699
090712
090729
090744
090759
090774
090789
090804
090819
090834
090849
090864
090879
090894
090909
090924
090939
090954
090969
090984
090999
091014
091029
091044
091059
091074
091089
091104
091119
091134
091149
091164
091179
091194
091209
091224
091239
091254
091269
091284
091299
091314
091329
091344
091359
091374
091389
091404
091419
091434
091449
091464
091479
091494
091509
091524
091539
091554
091569
091584
091599
091614
091629
091644
091659
091674
091689
091704
091719
091734
091749
091764
091779
091794
091809
091824
091839
091854
091869
091884
091899
091914
091929
091944
091959
091974
091989
092004
092019
092034
092049
092064
092079
092094
092109
092124
092139
092154
092169
092184
092199
092214
092229
092244
092259
092274
092289
092304
092319
092334
092349
092364
092379
092394
092409
092424
092439
092454
092469
092484
092499
092514
092529
092544
092559
092574
092589
092604
092619
092634
092649
092664
092679
092694
092709
092724
092739
092754
092769
092784
092799
092814
092829
092844
092859
092874
092889
092904
092919
092934
092949
092964
092979
092994
093009
093024
093039
093054
093069
093084
093099
093114
093129
093144
093159
093174
093189
093204
093219
093234
093249
093262
093279
093294
093309
093324
093339
093354
093369
093384
093399
093414
093429
093444
093459
093474
093489
093504
093519
093534
093549
093564
093579
093594
093609
093624
093639
093654
093669
093684
093699
093714
093729
093744
093759
093770
093789
093804
093819
093834
093849
093864
093879
093894
093909
093924
093939
093954
093969
093984
093999
094014
094029
094044
094059
094074
094089
094104
094119
094134
094149
094164
094179
094194
094209
094224
094239
094254
094269
094280
094299
094314
094329
094344
094359
094374
094389
094404
094419
094434
094449
094464
094479
094494
094509
094524
094539
094554
094569
094584
094599
094614
094629
094644
094659
094674
094689
094704
094719
094734
094749
094764
094779
094794
094806
094824
094839
094854
094869
094884
094899
094914
094929
094944
094959
094974
094989
095004
095019
095034
095049
095064
095079
095094
095109
095124
095139
095154
095169
095184
095199
095214
095229
095244
095259
095274
095289
095304
095319
095334
095349
095364
095379
095394
095409
095424
095439
095454
095469
095484
095499
095514
095529
095544
095559
095574
095589
095604
095619
095634
095649
095664
095679
095694
095709
095724
095739
095754
095769
095784
095799
095809
095829
095844
095859
095874
